0.994911 0.0347072 -9.2058
-0.102545 0.00875466 9.59773
0.0971387 -0.123757 4.35597
-0.0897472 -0.0750099 13.1911
0.0137781 -0.0262953 2.15864
0.0211931 -0.0376673 1.85226
0.020785 -0.0542771 2.23398
0.00281265 -0.0691771 4.54172
-0.0107357 -0.0616265 6.16864
-0.0202982 -0.0354897 7.15852
-0.0209751 -0.249414 12.7616
0 -0.229376 8.77973
0.0314692 -0.0748483 1.40521
0.0208961 -0.241312 3.92833
0.0217836 -0.195942 3.11319
0 -0.0843628 8.35867
0 -0.0134417 7.29131
0.0176597 -0.0735425 2.82919
-0.0186151 -0.0792942 14.3711
-0.00843508 -0.0545903 10.8572
-0.00689451 -0.0944746 10.9737
-0.0397957 0.0172068 21.8141
0.0421844 -0.0163776 -9.31963
0.0262702 -0.0346705 -2.62947
0.000567496 -0.0217305 8.19223
-0.00903738 -0.0334403 12.4171
-0.013867 -0.0269816 14.5659
0 -0.0880314 7.98468
0.0553233 -0.0621543 -19.286
0.0641141 -0.0779705 -23.7895
0.036331 -0.0312619 -10.2604
0.0625258 -0.0315811 -24.6826
0.0732792 -0.0224971 -30.8629
0.0880142 -0.0328766 -39.2923
0.0671566 -0.0103007 -27.3547
0.068233 -0.0122058 -28.201
0.0585211 -0.014516 -22.091
-0.0304999 0.00866682 2.60173
-0.0209116 0.0127538 2.13112
0.324289 -0.0271676 -10.7679
0 -0.0586603 4.29777
0.0130884 -0.0293408 2.26385
0.0142601 -0.0437402 2.60235
-0.00973226 0.011246 1.48466
-0.00039062 -0.0561182 4.45629
-0.00720407 -0.0625771 5.63443
0.00664265 0.00454455 -0.684885
0.0160669 -0.0018178 -2.39575
0 -0.0586603 4.29777
0 -0.0586603 4.29777
0.00451536 -0.0557632 3.14668
0.0284557 -0.503907 9.18944
-0.00389542 -0.0163305 3.99562
0 -0.0586603 4.29777
0 -0.0586603 4.29777
0 -0.0293069 3.27284
0.0260696 -0.00573928 -4.79844
0 -0.0213341 3.10209
0.135106 0.00211694 -46.3079
0.0422597 -0.00893179 -9.78238
0.0224587 -0.0212581 -1.48762
0.00960896 -0.0317746 4.35897
0.00792554 -0.042791 4.88487
0.00371609 -0.0295921 6.66308
-0.0179147 -0.0253508 16.329
0.000745003 -0.0341433 7.2535
0.0442511 -0.0521963 -13.9433
0.0553607 -0.016784 -20.6271
0.0604936 -0.00388967 -24.2705
0.067708 0.00471623 -28.1219
0.0924869 -0.0205426 -42.0429
0.0857727 -0.00475515 -38.6572
0.0845393 0.00876732 -38.1793
0.0713728 0.0129061 -30.2622
-0.0112879 0.0119443 2.056
-0.0111227 0.00764909 2.61464
-0.00434807 0.000129218 2.36214
-0.00451918 -0.0188215 2.76375
0 -0.0232939 2.70944
-0.00304874 -0.0450002 4.05385
-0.00805665 0.0101194 1.38262
0 0.00244141 1.46875
0 -0.014084 2.24895
0 -0.0232939 2.70944
0 -0.0232939 2.70944
0.0108051 0.00120421 -1.383
0.0148912 0.0034644 -2.2243
0.020519 0.00145343 -3.48177
0.00188487 -0.0222887 2.18043
-0.00255581 -0.0144691 2.96411
0.0316794 -0.00254888 -6.56301
-0.271034 -0.0423678 88.6331
0.819732 -0.079027 -252.862
0.0254825 0.00156301 -4.79029
0.0287141 -0.01013 -5.82853
0.0384894 -0.00935108 -9.12621
0.036281 -0.0119878 -7.15221
0.0163875 -0.00271377 0.245147
0.0074582 -0.0116261 4.42692
0.00225463 -0.0114509 6.34407
-0.00658463 -0.0110905 10.4262
-0.001456 -0.0105822 7.71839
3.06505e-05 -0.00628341 6.50378
0.0522365 -0.0227992 -19.0437
0.0754377 -0.00976877 -31.5098
0.05609 0.00401067 -21.5133
0 0 -1
0.0793443 0.00943573 -35.4012
0.098095 0.00127067 -45.95
0.0785528 -0.00232053 -34.1865
0.069319 0.0292608 -29.7676
-0.0199991 8.20201e-05 3.5734
-0.0345862 0.00842691 3.53438
-0.0109086 0.0111898 1.54407
-0.0134751 0.0175879 1.64816
0 -0.0468171 5.13598
0.0166649 0.100756 -5.36623
0.00447874 -0.142443 10.5216
0.0219673 -0.143842 8.44491
-0.0146334 0.0961888 -1.41081
-0.0283352 0.058847 3.55155
0.0141553 -0.0252954 1.56366
0 -0.133617 10.5484
0.0110249 0.000639045 -1.4066
-0.0158263 0.0588579 2.54166
0.0231639 0.0998581 -9.66783
-0.0151002 -0.176192 17.4928
0.023937 -0.00817611 -4.01225
-0.0226948 0.102305 3.00427
0.0231339 -0.00317716 -4.06624
0.0391947 0.0224076 -10.9406
0.0404266 0.0160462 -13.2384
0.28853 0.00615737 -104.667
0.0380379 0.00899709 -8.69728
0 0 -1
0.0106964 0.00926582 2.17182
-0.0111577 0.00967106 11.3331
-0.0103716 0.0181972 10.6593
-0.0121463 0.0151035 11.7376
0.0195228 0.0161862 -4.3987
0.0454078 0.0196939 -17.7374
0.0598949 0.011593 -24.8629
0.0721109 -0.0100205 -29.6445
0.0638214 0.0204708 -26.6036
0.0738837 0.0347652 -33.166
0.0808377 0.0355424 -37.5999
0.0804068 0.0196387 -36.2902
0.120074 0.0377708 -62.0934
-0.0213956 -0.0112915 4.01711
-0.0357696 0.00730287 2.95996
0 0 -1
0.183824 -0.0696943 -2.03076
-0.00862416 0.0149934 1.36197
-0.00446228 0.00951132 0.952903
-0.00569549 -0.0019003 2.62879
-0.0101205 0.0105344 1.57977
-0.00578894 0.00859523 1.14066
9.41669e-05 0.00606332 0.374027
-0.000397159 0.00639268 0.425814
0.00538652 0.00418397 -0.463681
0.00595818 0.00447401 -0.611089
0.0185386 -0.00287919 -2.92018
0.0186715 -0.00485603 -2.80981
0.0235852 -0.0023546 -4.2025
0.0213355 0.00912492 -4.33635
0.0322271 -0.00502409 -6.62206
0.0244757 0.0177313 -7.13387
0 0.212763 -14.4476
0 0.256067 -18.1051
0.0441345 -0.00160682 -10.7956
0.0224872 0.0144967 -2.78154
0.011863 0.0068542 1.90335
0.0209791 -0.00025332 -1.1266
-0.0112159 0.0178482 11.2875
-0.0011863 0.0136947 7.04289
-0.00914384 0.020505 9.9744
0.0284851 0.0236318 -9.58302
0.0478246 0.0200436 -18.7256
0.0656115 0.015237 -28.0932
0.0868426 0.0107553 -39.4473
0.0807885 0.00258681 -34.9261
0.07711 0.0175313 -33.9948
0.0734943 0.0431433 -33.9046
0.077278 0.0232001 -34.4172
0.109674 0.0174197 -54.0763
-0.00734932 0.0152248 1.77464
-0.021784 0.0259532 0.585908
-0.011186 0.0108035 1.66281
0.0035322 0.00985813 1.2388
-0.0140879 0.0188265 1.28238
-0.0118002 0.016534 1.24492
-0.0126522 0.0157954 1.37815
0 -0.00334821 2.69699
0.00968284 -0.103181 11.4423
-0.00967931 0.0104417 1.5062
-0.0015443 0.00719234 0.539256
0.00699472 0.0240459 -1.25883
-0.00756052 -0.00253029 4.28708
0.00545004 0.00514127 -0.554913
0.0137336 0.0034869 -2.27489
-0.00377199 -0.00334821 3.7356
0.020836 0.0032164 -4.43503
-0.672416 0.00495526 213.598
0.944284 0.0113699 -296.206
-0.0128321 0.0960574 -3.29577
0.0463943 -0.0100249 -12.3103
0 0 -1
0.0176017 -0.00165656 0.843196
0.0117991 -0.007517 3.14647
0.0123711 -0.00162378 2.6798
-0.00553899 0.00348135 10.0959
-0.010645 0.0100856 11.686
-0.0156488 0.0156676 13.2506
0.0219767 0.0320266 -7.14018
0.0567642 0.0263204 -23.9293
0.0601315 0.0221468 -25.6837
0.09 0.0193568 -41.5439
0.0829 0.00447262 -36.3628
0.0880917 0.0132925 -39.9751
0.0736296 0.0133178 -31.4898
0.0790065 0.00941691 -34.3018
0.069689 0.00577537 -28.1657
0.00948241 0.0553912 -2.27059
-0.0135488 0.0438707 -0.374897
-0.0470678 0.0437659 0.532856
0.114939 -0.0277656 -0.5494
0.00116197 0.00500751 2.3695
0 0.00508704 2.44887
-0.00748964 0.0048701 3.35541
0.0184319 0.0133927 -0.914146
0.00272928 0.00730809 1.80756
0 0.00508704 2.44887
-0.00916146 0.00476761 4.21032
0.0194691 -0.00710879 -0.0844637
0.0106138 0.00741999 -1.89293
-0.00724911 0.00458655 4.24486
0 0.00508704 2.44887
0.833984 0.216797 -249.819
-0.0187039 -0.0203881 10.2584
-0.00390208 0.0139972 1.52007
0.00111402 -0.0189974 3.7549
0.0268465 0.0275649 -8.10308
0.0368444 -0.0248042 -7.1292
0.0313219 -0.00761477 -7.29406
0.0632847 -0.00199282 -17.4273
0.0208694 -0.0156349 0.635665
0.00870998 -0.0180277 5.99391
0.0123353 -0.0108662 3.57788
-0.00499016 0.0208667 7.76154
0.000128451 0.0236106 4.25131
0.0298016 0.0177664 -9.82579
0.0476123 0.008297 -17.4977
0.0613506 0.00764163 -24.9513
0.0910155 0.0173379 -41.7704
0.077785 0.0238918 -35.1853
0.0821844 0.0205525 -37.3435
0.0826865 0.0151462 -36.9662
0.0537514 -0.009313 -16.3261
0.0445046 0.00628252 -12.5105
0.00373166 0.0146778 2.65663
-0.0391265 0.0150018 3.88606
-0.0489366 0.0266476 2.06407
-0.008021 0.0227644 0.330288
-0.00734258 0.0217975 0.568878
0.0908986 0.0394789 -10.0115
-0.0223216 0.0262999 1.2619
-0.0144624 0.0238217 0.786833
0 0 -1
-0.0070139 0.0125885 0.697805
0.00306787 0.00479972 0.0026983
0.487826 -0.148633 -80.1027
-0.0878024 -0.171265 44.3463
0.00744387 0.00608143 -0.997134
0.00783944 0.00297307 -0.658194
0.026268 0.0350636 -8.52846
-0.0151418 -0.0228704 9.61025
0.0154371 -0.0096709 -1.48731
-0.00155822 -0.00612108 4.01006
0.958984 -0.0777344 -308.871
0.04292 -0.0116148 -9.94411
0.251481 -0.0586088 -84.3878
0.0318929 0.0104103 -7.55621
0.0314771 -0.0200801 -3.3693
0.0215089 -0.0102732 -0.797902
0.0332803 -0.0171516 -5.25608
0.018045 0.0597484 -8.16732
0.000174401 0.020471 4.22684
0 0 -1
0.0376615 0.0326263 -15.7951
0.0716858 0.0166065 -31.3944
0.0676862 0.0205862 -29.0989
0.0649733 0.0242245 -28.0861
0.0867133 0.0206401 -40.1018
0.0726155 0.0170512 -31.2365
0.0437873 0.00350526 -11.9874
0.0601083 0.00813028 -22.7675
0.0554073 -0.0113108 5.31204
-0.0171988 0.00851431 4.09069
-0.0618628 -0.00290324 6.98296
-0.0307689 0.0361605 -0.678148
-0.0256583 0.056732 -2.69682
-0.0126697 0.0290598 -0.919103
-0.0164998 0.0296069 -0.473615
-0.0152333 -0.00456947 4.59517
-0.0125292 0.0183786 0.758409
0.0386727 0.0323016 11.9422
-0.176021 0.0118294 51.8472
-0.125417 0.0193321 40.0287
-0.13566 0.0734404 33.9839
-0.156092 0.0549796 41.6287
-0.414505 0.543123 32.2242
0 0 -1
0.0875674 -0.0441448 -13.7626
-0.242526 0.321429 28.7338
0.0214531 -0.00940962 -3.16837
0.0304094 -0.0181812 -5.5305
0.0178359 -0.0154983 -1.59764
0.0630486 -0.0170379 -17.0136
0.0521036 0.0050843 -15.4039
0.0120654 0.0327589 -3.66262
0.0248482 0.0361536 -9.41527
0.0685531 0.0698659 -33.2258
0.10055 0.0949366 -51.9762
0.104083 0.0963291 -52.5733
0.0498366 0.0932052 -24.9147
-0.0311589 0.0994452 15.6079
-0.0860027 0.122523 40.4381
0.014452 0.0574936 -5.21226
0.0549006 0.0165297 -21.3924
0.0769529 0.0142593 -33.4518
0.0652005 0.00680093 -25.1556
0.0447854 0.015333 -14.1247
0.0545397 0.0181313 -20.5652
0.0332765 0.0107253 2.06795
-0.00152493 0.0770436 -7.48958
0.0120159 0.117411 -14.5087
0.0265389 0.00287094 5.95087
-0.109731 0.115103 -3.97644
-0.0567076 0.0750148 -2.96233
-0.0125292 0.0183786 0.758409
0.0895352 0.0338895 6.50197
-0.030594 0.174884 0.4944
-0.124338 -0.0647102 54.3468
0.00497512 0.0807088 48.7274
0.00250404 0.133241 39.8854
0.000208286 0.327735 7.56602
-0.00596235 0.131912 42.1539
-0.177489 0.170003 28.292
-0.104268 0.0528906 82.0411
0.035555 -0.0118023 -7.20946
0.0383548 0.0318908 15.8351
0 0 -1
0.0127026 0.0278889 24.4973
0.00905068 -0.0791378 44.2222
-0.00324621 0.00297646 10.1608
0.0624056 0.166816 -44.4444
0.0377851 0.160042 -34.9288
0.0596899 0.168382 -45.5356
0.0925559 0.127012 -53.3029
0.101845 0.127114 -57.1012
0.103228 0.105946 -53.8238
0.0607555 0.11922 -34.6955
0.038109 -0.0490467 45.2105
-0.0151283 0.0103532 62.7192
-0.0370432 -0.0296612 82.0222
0.0759392 0.0160241 -33.3727
0.0832009 0.0164031 -37.286
0.049636 0.0267064 -18.7771
0.0454858 0.00913963 -13.494
0.0507989 0.0133782 -17.4891
0.0444699 0.072448 -7.75987
0.0613734 0.0869783 -10.7933
0.0293484 0.106589 -13.2034
-0.00117257 0.0329988 2.15928
-0.0581593 0.0928634 -4.78606
-0.060476 0.0698884 -1.19547
-0.069849 0.207469 -8.2682
-0.048726 0.184942 -6.17979
0 -0.0139509 26.3905
0.0230558 0.0674078 47.6139
0.0306407 0.0518795 49.1973
0.0187771 0.0639594 49.4315
0.0194932 0.0699166 48.2771
0.0141304 0.0889552 45.379
-0.0272513 0.0630369 60.2538
-0.0547025 0.0466094 70.0544
-0.110735 0.0701311 80.3109
0.0531278 0.0369931 10.2921
0.0215561 0.024256 22.4118
0.00545359 0.0136332 29.7147
0.00114284 0.00342999 32.9446
-0.0389497 -0.00172906 48.3989
0.0782963 0.165108 -50.9203
0.0252224 0.238929 -42.7866
0.0348317 0.269802 -52.2833
0.0467636 0.221795 -48.3886
0.0571834 0.199254 -48.5289
0.156284 0.0399701 -31.4702
0.127656 0.00373261 -10.3571
0.0312229 -0.0223317 44.4468
-0.00378533 -0.00385527 59.5667
-0.033822 -0.0114653 77.2517
-0.147103 0.00839612 136.064
0.007521 0.118725 -1.4101
-0.0401374 0.106604 28.9547
-0.0460433 0.138359 26.7126
0.0548839 0.0245371 -21.9252
0.0583869 0.0902821 -11.2191
0.0495192 0.106505 -14.2095
-0.0841515 0.0715544 22.3858
-0.063716 0.0716312 21.4332
-0.0952263 0.160177 4.60536
-0.09478 0.192942 -2.58805
-0.0223201 0.222623 -16.7086
-0.00104034 0.23714 -21.5405
0.0226537 0.0224123 56.7756
0.0195333 0.040726 53.6817
0.0193784 0.0505657 51.6478
0.0196904 0.0251804 56.7332
-0.00852542 0.0269373 62.3705
-0.00702394 0.0364375 60.1614
-0.023249 0.0315595 65.1303
-0.0652729 0.0588043 70.3758
-0.115921 0.0597544 84.0558
-0.0144578 0.041725 30.4189
-0.00984554 0.0108225 35.2854
-0.010162 -0.00800519 39.2626
-0.0092851 -0.00896763 39.1479
0.0300445 -0.0240946 27.5746
0.0281715 0.372138 -69.6534
0.0284776 0.363745 -68.2784
0.0254399 0.326693 -59.5253
0.0326483 0.271884 -51.4206
0.164107 0.0454816 -36.1752
0.155221 0.0606242 -34.7942
0.0956031 0.0508424 -3.3784
0.0655617 0.0160442 19.0678
0.00144496 0.00879518 54.2796
-0.0456021 0.00626155 80.3667
-0.0993869 0.0346259 104.355
-0.0417936 0.100202 31.6621
-0.0117622 0.125087 9.40267
0.0959875 -0.0712854 -14.3514
-0.268574 0.397249 115.148
-0.000127932 0.0132517 31.0824
0.625928 0.0718458 -3.54178
-0.078945 0.0648169 23.621
-0.0528711 0.121085 10.2869
-0.086159 0.193889 -3.01533
0.0141839 1.47864 -286.976
-0.0435703 0.19759 6.16789
-0.0865387 0.159653 19.8411
0.0242208 0.0175884 57.7325
0.00617206 0.0148408 61.4105
0.0106471 0.0121997 61.1052
0.00685474 -0.00380264 65.3096
0.00356676 -0.00433613 66.0884
-0.00909253 -0.00454293 69.0011
-0.0040863 -0.00173382 67.0213
-0.0370974 0.0188678 71.3645
-0.0619621 0.0386285 74.025
-0.0615699 0.0341 46.3052
-0.0237381 -0.00431549 42.7923
-0.0153094 -0.0152328 42.4579
-0.0050448 -0.0171836 39.1899
0.00547376 -0.019278 35.7515
0.0115838 0.415001 -72.1613
0.0115113 0.403924 -69.4951
0.0132795 0.359637 -60.6633
0.185038 0.0162568 -39.1538
0.194934 0.0319317 -47.6192
0.191428 0.0750123 -54.9084
0.0845731 0.0766626 -3.23294
0.0302994 0.0695998 25.7362
0.00905012 0.0451872 42.3931
-0.0348941 0.0572137 63.6062
-0.0417459 0.0641415 65.1492
-0.0194096 0.116058 41.501
0.120106 -0.0845571 -26.8498
0.127461 -0.138626 -19.8146
0.126637 -0.104316 -26.3813
0.968766 2.47202 -604.352
0.642739 0.0857293 -7.04524
-0.0393644 0.0887718 16.5568
-0.174667 0.0964822 45.773
-0.187419 0.12034 41.0694
-0.219455 0.0833123 52.4807
-0.195781 0.0784208 50.9161
-0.189622 0.0162625 64.962
0.0557455 -0.0122977 59.2818
0.0223592 -0.0061658 63.4519
-0.0154532 -0.0105106 70.9649
-0.00332667 -0.0362088 74.2378
0.00838876 -0.0348332 71.8542
-0.0018634 -0.0142353 69.4453
-0.014453 -0.0185787 73.2691
-0.0210651 -0.00430658 71.8484
-0.0544379 0.0265252 74.1749
-0.0540817 0.0239261 74.0626
-0.03473 0.0246231 39.547
-0.018421 -0.0348352 47.6094
-0.0162806 -0.00916995 41.3871
-0.0537251 0.0109928 50.4842
-0.0144783 0.402426 -58.5309
-0.00252835 0.403219 -63.4529
0.0272693 0.405619 -76.6401
0.996274 0.0792615 -424.708
0.252037 0.0273984 -73.1378
0.222463 0.0627261 -66.5983
0.066869 0.0690293 8.59916
0.0177405 0.0526607 37.009
0.00364405 0.0627953 41.8013
-0.0149135 0.0416685 56.9817
-0.0223698 0.0817581 51.656
0.00719448 0.0611373 39.4674
0.0104742 0.017895 47.8213
0.036428 0.322379 -66.96
0.0306655 0.327294 -64.6108
0.968766 2.47202 -604.352
0.6026 0.296567 -42.1927
0.6026 0.296567 -42.1927
-0.186048 0.0476906 58.3071
-0.193154 0.0304905 63.4301
-0.0839738 -0.0601694 66.7921
-0.127315 0.0558736 41.6104
-0.159497 0.292896 -14.76
0.0761841 -0.0237843 59.2054
0.028539 -0.0104465 63.5242
-0.0363137 0.0204183 66.3517
0.00755493 0.0417743 51.653
0.0300156 -0.00410583 59.2704
0.0245791 0.0057766 58.1393
-0.0206113 0.00721427 68.6111
-0.016781 -0.00194123 70.2212
-0.0492932 0.00722395 77.1567
-0.0584465 0.00803963 79.5425
-0.0397637 0.433496 -59.0307
-0.00266558 0.433179 -71.1778
0.000908639 0.433559 -72.5546
0.00163216 0.41379 -67.5562
-0.00132069 0.417401 -67.3807
0.00892027 0.420096 -72.2038
0.0343727 0.422416 -83.5708
0.0690612 0.445274 -104.188
0.289511 0.00825721 -86.3634
0.293074 0.00210126 -85.8351
0.0393282 -0.0373261 48.5928
0.00400123 -0.0155156 60.8074
-0.00228122 -0.00565839 61.5992
-0.00688458 -0.0120972 65.7812
-0.0163183 0.00169585 67.651
-0.00910695 -0.00199528 64.4353
0.00813904 -0.00157089 54.0728
0.0253468 0.356661 -67.7416
0.00749374 0.37255 -60.7599
0.0643711 0.0841641 24.6357
0.0632771 0.0864938 24.027
0.0577903 0.0875576 23.9597
0.0219752 0.0322666 41.0835
0.0513143 0.0875389 23.6205
-0.0133619 0.467763 -78.2508
-0.035976 0.490759 -82.1217
0.0958913 -0.0375097 59.4325
0.0801768 -0.0364635 61.9606
0.0671657 -0.0305649 62.4109
-0.00155676 -0.00386174 66.714
-0.00773645 -0.00702248 68.793
0.0124131 -0.0222185 68.4216
0.0146992 -0.0512102 75.9533
-0.0168946 -0.0521058 83.7087
-0.0339996 -0.0601556 90.3471
-0.0583744 -0.0265482 88.3501
-0.043888 -0.0397451 87.5214
-0.0199802 0.406242 -58.3902
0.000519246 0.416825 -67.839
0.00312659 0.426286 -71.4166
0.00868516 0.409744 -68.9877
-0.00436041 0.405329 -62.5402
0.0184857 0.403819 -71.6254
0.00557625 0.397142 -64.1479
0.103701 0.35595 -96.255
0.277887 0.0811124 -100.694
0.203279 0.0114119 -45.524
-0.000477538 -0.0943063 83.5387
0.0181382 -0.0740283 68.6229
-0.00432438 -0.0575325 76.2654
-0.0248189 -0.085264 94.9488
-0.00643904 -0.0915662 86.4115
0.000686214 -0.0482848 70.681
0.0277367 -0.0631924 58.383
-0.00726631 0.38045 -53.8691
0.0272023 0.351528 -67.3854
0.066575 0.0843787 24.5451
0.0681115 0.0891225 23.1338
0.0737147 0.118717 14.3147
0.0979625 0.342632 -51.362
0.0451666 0.397146 -63.0273
-0.0312761 1.16844 -282.591
0.127104 0.0670539 26.6723
0.0561744 0.030398 45.7566
0.0924055 -0.0446284 62.2928
0.0157002 -0.0307071 70.2138
0.0326025 -0.132338 95.5945
-0.00127875 -0.0579644 80.9522
-0.0181765 -0.0526571 82.5858
-0.0150016 -0.0298404 75.2879
-0.00448866 -0.0297091 72.6042
0.0147714 -0.0378521 69.5909
-0.00693516 -0.0426024 77.3435
-0.0357698 0.0622371 48.5752
-0.0438094 0.414152 -52.2148
-0.0146635 0.408251 -60.1151
0.00260608 0.421851 -70.1695
0.0125284 0.406838 -69.2705
8.45774e-05 0.408337 -64.9209
0.00425001 0.393454 -62.527
-0.0112578 0.408708 -60.4531
-0.0373757 0.36205 -35.4409
0.080362 0.222306 -47.8398
0.0676808 0.0562334 7.07032
-0.017391 -0.0446525 77.7836
0.0146882 -0.049288 63.0411
-0.0126498 -0.0488227 77.7067
-0.0561508 -0.0715525 107.337
0.00939303 -0.153604 94.3731
0.0213149 -0.0914398 70.0434
-0.0338129 0.34755 -27.7222
-0.0306549 0.364785 -34.8494
0.00328034 0.345249 -50.4554
0.00235146 0.457692 -77.3185
0.00237933 0.461073 -78.3646
0.00531652 0.466514 -80.1734
0.0188856 0.471398 -82.4761
0.0173142 0.463005 -79.8811
0.0266461 0.460468 -79.6203
0.00274106 0.390042 -55.1389
-0.0225357 0.270663 -15.4729
-0.0195069 0.315981 -30.4901
-0.00112772 0.0581819 46.0972
-0.0218392 0.0383199 55.38
0.00799262 -0.0328856 71.2531
0.0351727 0.0680971 34.4363
-0.0300259 0.123907 32.3798
-0.0164028 0.0235734 59.7249
0.0133433 0.0280835 50.1859
0.00364923 -0.00569686 63.5148
-0.0827629 0.206491 24.0909
-0.0145104 0.410795 -61.1266
-0.00491039 0.394325 -59.1543
0.00277788 0.411436 -66.7705
-0.00903451 0.41337 -63.2233
0.00133061 0.410698 -66.2193
-0.029513 0.412888 -54.0161
-0.0133627 0.396081 -55.5534
-0.0182874 0.407575 -57.0194
-0.0293059 0.410913 -53.4795
0.0738232 0.18905 -35.3792
0.0200381 0.37741 -66.9639
0.0375409 0.361268 -70.8378
0.00164797 0.350348 -48.3338
-0.0430981 0.412515 -43.545
-0.00588885 0.392178 -58.6724
-0.00483941 0.381378 -55.8536
-0.00343067 0.358685 -49.6436
-0.0339418 0.360719 -31.2376
-0.0553696 0.353502 -16.0354
0.00540328 0.455964 -76.7881
0.00647596 0.458084 -77.5007
0.00989934 0.462409 -79.0393
0.017356 0.450545 -75.4315
0.0220142 0.467837 -81.1359
-0.0345793 0.407281 -56.2009
-0.0572269 0.354227 -36.8293
-0.0407987 0.362493 -41.6386
-0.0348646 0.436199 -66.2096
-0.0400382 0.454785 -71.7446
-0.0215875 0.097946 40.7761
-0.0141636 0.451934 -75.0061
-0.0187387 0.349113 -40.4979
-0.0341914 0.461143 -73.2897
-0.0542531 0.478465 -73.9149
-0.050931 0.4507 -65.283
0.0291612 0.139922 10.9062
0.0118017 0.415587 -71.8919
0.0270536 0.40081 -72.0031
0.0103088 0.385133 -61.3531
0.0118806 0.42047 -73.0978
0.0129008 0.420934 -73.7681
-0.00375031 0.421112 -67.2553
-0.00498363 0.406704 -62.4647
-0.0167591 0.396277 -54.262
-0.0196005 0.405366 -55.6473
-0.0195491 0.397181 -53.066
-0.00962887 0.432317 -69.8345
0.0125498 0.433169 -80.951
0.0104277 0.394899 -67.2669
-0.00966258 0.383222 -52.8859
-0.0129422 0.374454 -48.3237
-0.0110196 0.390879 -54.661
-0.0171052 0.380641 -47.7517
-0.0240462 0.372506 -41.0579
-0.0337789 0.402908 -44.8432
-0.0493171 0.375542 -26.332
0.00597919 0.451133 -75.1665
0.00692746 0.448863 -74.4073
0.00742261 0.442265 -72.1359
0.0145599 0.442601 -72.3528
-0.0144416 0.405376 -57.68
-0.0286398 0.407635 -57.3466
-0.0249161 0.411371 -59.5957
-0.0113022 0.441317 -70.8333
-0.0371 0.43515 -64.5423
-0.0328015 0.451585 -71.1981
-0.0214027 0.459738 -76.1058
-0.030646 0.447534 -69.6051
-0.0165364 0.443869 -72.0193
-0.0324778 0.432606 -63.8977
-0.0105767 0.43947 -71.2789
-0.0131133 0.446555 -73.3703
-0.0406118 0.437616 -62.815
0.00875135 0.485308 -94.6329
-0.00275461 0.44538 -77.2333
0.0118057 0.415435 -71.4758
0.00222041 0.410689 -66.3662
0.00479088 0.410317 -66.8613
-0.0109204 0.413284 -61.8612
-0.0190581 0.419578 -60.7669
-0.0216518 0.411772 -57.0097
-0.0286676 0.415298 -55.0841
-0.0187097 0.416731 -59.7849
-0.0140664 0.419527 -62.9796
-0.00423718 0.410478 -64.3635
-0.0287903 0.40554 -50.5812
0.00489076 0.391897 -63.59
-0.00442759 0.395408 -59.868
0.0011418 0.39689 -63.1175
-0.0106852 0.409656 -60.9517
-0.0162771 0.425314 -63.0869
-0.00562902 0.411095 -64.6469
-0.116966 0.0572739 114.671
0.0026159 0.443689 -72.507
0.0017504 0.437682 -70.32
-0.00262746 0.148531 34.6071
-0.000483514 0.429498 -67.2192
-0.0185661 0.417785 -61.857
-0.0203652 0.438216 -69.24
0.00109218 0.435581 -70.1146
-0.0143485 0.433251 -67.3709
-0.0428883 0.417048 -57.5858
-0.00429041 0.403407 -58.6733
-0.019103 0.449719 -72.8389
-0.020113 0.438947 -69.0307
-0.00981184 0.449396 -74.4879
-0.0176001 0.440188 -69.9099
-0.0223817 0.435901 -67.3319
-0.0278612 0.442706 -67.9646
-0.0305344 0.449207 -70.0077
-0.0166361 0.461581 -78.4534
-0.0139104 0.436807 -70.409
0.0195079 0.399488 -68.8519
0.00539638 0.405988 -65.671
-0.00139923 0.392454 -58.5823
0.00672904 0.383317 -58.3368
-0.011823 0.405825 -58.7329
-0.0174269 0.408953 -58.06
0.00990633 0.401 -67.4542
-0.0114167 0.412994 -61.4751
-0.042297 0.387674 -37.6669
-0.0213491 0.427253 -62.5692
-0.0157093 0.42125 -62.9389
-0.00940478 0.447041 -75.4914
-0.0308233 0.396612 -45.7469
-0.00114376 0.356594 -47.7956
-0.000364483 0.354567 -46.8962
-0.0151131 0.391542 -51.705
-0.0106891 0.389396 -53.6896
-0.0197891 0.387765 -47.4924
-0.0020195 0.435223 -69.3433
-0.00427314 0.430185 -67.3882
-0.00174574 0.430235 -67.4819
-0.00890979 0.423698 -64.681
-0.00816369 0.423761 -64.8151
0.00602602 0.438264 -71.5938
0.00204917 0.442576 -72.8289
-0.0355973 0.398528 -51.6165
-0.0241601 0.412321 -58.5337
-0.0132274 0.405061 -57.4838
0.0118657 0.411295 -64.2671
-0.0142119 0.419609 -62.5436
-0.0254164 0.415211 -58.6601
-0.0177298 0.436725 -68.4992
-0.0283572 0.448241 -70.3586
-0.00381592 0.461808 -82.1562
-0.018557 0.447207 -72.314
-0.0144064 0.452628 -75.7448
-0.0174167 0.461631 -78.1188
-0.0246944 0.467976 -78.1558
-0.0193349 0.443671 -70.8892
-0.0437602 0.416463 -52.0065
0.00393193 0.393549 -61.3018
0.00773597 0.393646 -62.5733
0.00901436 0.412277 -70.075
-0.015237 0.431122 -67.0195
0.00132803 0.391378 -60.0005
0.00578031 0.42132 -73.4576
-0.0109728 0.432338 -69.1052
-0.0155825 0.435996 -68.0224
-0.0407078 0.408001 -44.2087
-0.0413326 0.403312 -43.2584
0.00126653 0.359195 -50.3624
0.0162688 0.36163 -60.3237
0.00652578 0.369281 -56.7723
-0.00524701 0.392582 -58.3416
-0.0253134 0.393422 -46.1385
-0.00655696 0.429428 -67.052
-0.000676068 0.154559 43.2349
-0.00763341 0.425528 -65.4675
-0.00987356 0.420775 -63.5141
-0.00676727 0.415422 -61.6493
0.00671105 0.415757 -62.9672
0.00123435 0.409885 -59.8287
-0.0391423 0.395742 -49.6651
-0.048932 0.425349 -60.3753
-0.00630236 0.397459 -55.7867
0.00324947 0.402824 -59.2628
-0.012488 0.419212 -62.5919
0.00170021 0.424141 -67.9217
-0.00501034 0.411569 -61.6434
-0.0174337 0.432527 -66.6321
-0.0206886 0.433344 -66.1149
-0.0265951 0.443544 -68.0835
-0.0166965 0.434869 -68.072
-0.00142213 0.430424 -71.0334
-0.0220299 0.432019 -64.8945
-0.0350978 0.445291 -65.7632
-0.0341304 0.432293 -61.1819
-0.0237579 0.405272 -54.9608
0.0265192 0.412521 -77.2992
0.0292012 0.416278 -79.3523
-0.018544 0.43423 -66.4263
-0.00913096 0.429691 -69.2674
-0.0126547 0.410902 -59.7274
-0.0200205 0.423431 -61.0047
-0.0167998 0.414573 -59.1085
-0.0286416 0.403556 -48.1893
-0.0544152 0.431921 -46.728
-0.0144548 0.431227 -69.1388
0.010808 0.410435 -75.3587
0.00486879 0.399261 -67.1027
0.00644524 0.394323 -66.0191
-0.0269007 0.422899 -56.599
-0.00261791 0.136478 54.8875
-0.00860849 0.426802 -65.9554
-0.0116334 0.423868 -64.6597
-0.0140455 0.420108 -63.0042
-0.01269 0.414749 -60.9225
-0.00718533 0.400053 -55.3884
-0.0438731 0.361628 -35.7978
-0.0425662 0.380242 -43.2978
-0.020565 0.397808 -53.4473
0.00509901 0.425495 -68.7498
0.00533062 0.430914 -70.8638
-0.0129789 0.431353 -67.5122
-0.0123094 0.433866 -68.6675
-0.0219469 0.420769 -61.0956
-0.00524682 0.390897 -53.5734
-0.0125653 0.418169 -62.4353
-0.0110173 0.413404 -61.1701
-0.0121737 0.423685 -65.0205
0.00830102 0.42 -70.4134
-0.0153482 0.409962 -58.4777
-0.0324454 0.432842 -61.9217
-0.0356561 0.437396 -62.5638
-0.0415001 0.432903 -58.6504
-0.0017552 0.416018 -67.6082
0.0186318 0.393399 -66.3892
-0.00646406 0.412755 -63.3931
-0.00914296 0.411496 -61.6623
-0.00649224 0.439538 -74.6129
-0.0085259 0.414512 -63.4116
-0.015636 0.416806 -60.8508
-0.0503491 0.424374 -45.4136
-0.0231114 0.43078 -62.9563
-0.0363756 0.42814 -54.7995
0.00553069 0.422997 -77.0811
0.0124663 0.39735 -71.0434
0.00280929 0.401538 -66.6993
0.0117308 0.402567 -72.5804
-0.0100877 0.427366 -66.1708
-0.011481 0.425253 -65.2468
-0.014521 0.423267 -64.2914
-0.0177017 0.421572 -63.4014
-0.0201074 0.419432 -62.328
-0.0188854 0.41437 -60.305
-0.0192437 0.400948 -54.5818
-0.0157466 0.427012 -66.8483
0.0166032 0.473734 -91.6809
0.0272504 0.440675 -78.7107
-0.00614682 0.425122 -65.8761
-0.0124729 0.439959 -71.3619
-0.0142111 0.44048 -71.0703
-0.0306467 0.427237 -61.4553
-0.0219623 0.420138 -60.859
-0.0241549 0.42209 -60.8986
-0.0214159 0.412215 -57.2976
-0.0158105 0.420621 -62.6749
-0.015309 0.426473 -65.0721
-0.00349006 0.437839 -73.994
-0.0290833 0.43454 -63.776
-0.0411938 0.447027 -64.615
-0.0448801 0.429539 -55.9771
-0.0242852 0.42325 -61.1364
0.00234512 0.397184 -61.0496
0.0153638 0.394348 -65.3163
0.000556062 0.412935 -66.4211
-0.0152558 0.419736 -61.142
-0.0150273 0.417722 -61.6716
-0.0100315 0.422904 -65.9087
-0.0283395 0.425515 -57.8015
-0.0363142 0.43102 -55.882
-0.0318433 0.428507 -57.5647
-0.0202426 0.428674 -64.367
-0.00330654 0.417765 -69.8444
0.007659 0.390611 -65.0078
0.0152768 0.399434 -73.4539
-0.0131406 0.426348 -65.7043
-0.0139028 0.424384 -64.8085
-0.0156622 0.423266 -64.2457
-0.0177361 0.42356 -64.2707
-0.0197837 0.425803 -65.1369
-0.0220138 0.43062 -67.1027
-0.0251818 0.433553 -68.108
-0.00342638 0.473843 -88.7174
0.00279406 0.479981 -92.1864
0.0124595 0.463702 -86.4174
-4.55835e-05 0.433443 -70.7128
-0.00402923 0.439245 -72.5744
-0.00840506 0.443414 -73.4474
-0.0149644 0.458002 -78.9701
-0.0306056 0.440533 -67.3683
-0.0417548 0.440266 -64.1031
-0.0203511 0.427663 -64.2156
-0.00175751 0.430783 -71.2493
-0.00672122 0.420517 -65.0652
-0.0232797 0.431578 -64.5957
-0.036574 0.433122 -60.3776
-0.0365059 0.426928 -57.7065
-0.0372179 0.445762 -65.8774
-0.0357934 0.413219 -51.9474
0.0283031 0.361959 -57.3391
0.0439442 0.355324 -61.0003
0.00828002 0.370499 -51.1122
-0.0136345 0.388027 -49.1667
-0.0184896 0.417452 -59.6257
-0.00761207 0.432831 -71.8421
-0.026841 0.430879 -60.683
-0.0465921 0.445793 -56.7564
-0.0298979 0.431663 -60.0005
-0.0196019 0.427965 -64.2767
-0.0220287 0.411963 -55.676
0.00352789 -0.159718 178.661
0.0161531 -0.189359 184.09
-0.0147756 0.42534 -65.2339
-0.0150839 0.423996 -64.6047
-0.0154822 0.423497 -64.3623
-0.0151754 0.425043 -65.1053
-0.013109 0.430152 -67.6409
-0.00687332 0.440585 -73.0691
0.00675537 0.457354 -82.3281
0.0148047 0.47628 -91.9704
-0.0174538 0.386775 -45.2896
-0.0074566 0.447798 -75.7727
-0.0140469 0.422072 -62.8516
-0.00699346 0.418269 -62.2838
-0.0171247 0.419898 -60.783
-0.0288701 0.412129 -54.4559
-0.0286518 0.429303 -62.4024
-0.0110951 0.381097 -45.0908
-0.0116957 0.405406 -56.147
-0.0136878 0.433252 -68.5762
-0.0171965 0.427934 -64.9123
-0.0254525 0.43386 -64.9601
-0.0245475 0.424625 -61.0224
-0.0347623 0.409938 -50.2264
-0.0464806 0.426232 -53.394
-0.0597672 0.391514 -32.1289
-0.0438795 0.36971 -29.2572
0.0379203 0.354569 -57.6827
0.0288998 0.385577 -67.4686
0.00709631 0.421682 -73.9589
-0.00585429 0.442048 -76.9221
-0.0139546 0.435443 -69.6386
-0.0195529 0.389238 -45.5153
-0.0303225 0.445505 -65.388
-0.0457585 0.426096 -48.27
-0.0272289 0.423605 -57.7855
-0.0273075 0.421877 -56.932
-0.0270257 0.421285 -56.8247
-0.0270248 0.420621 -56.5163
-0.0155234 0.424648 -64.9074
-0.015486 0.423465 -64.3488
-0.0145698 0.423332 -64.3268
-0.0116006 0.425978 -65.7592
-0.00562052 0.433963 -69.9957
0.00289794 0.448552 -77.6943
0.0100858 0.46447 -85.9907
0.0066065 0.462286 -84.4361
-0.00750949 0.468501 -85.3823
-0.026037 0.444293 -71.0928
-0.0319785 0.427266 -62.0638
-0.0194358 0.384412 -44.2657
-0.0223239 0.357748 -30.9497
-0.0329214 0.343427 -21.8751
-0.0266278 0.357859 -30.1496
-0.00621941 0.396055 -53.3571
-0.00225913 0.406213 -59.2489
-0.0049865 0.431437 -70.405
-0.0135028 0.438546 -71.0456
-0.0297774 0.438835 -65.7906
-0.0365533 0.404241 -47.3534
-0.0308159 0.409328 -51.5964
-0.0623623 0.409715 -39.4731
-0.0882565 0.385891 -17.8624
-0.0287458 0.367978 -35.4962
0.0430355 0.313848 -41.2615
0.0714864 0.323251 -58.3784
0.0402881 0.378378 -69.7774
0.00541805 0.414955 -70.027
-0.0200498 0.408736 -54.3205
-0.0199258 0.404126 -52.2097
-0.0218735 0.405382 -51.7072
-0.035025 0.431564 -56.9035
-0.0331167 0.429412 -57.0121
-0.0300248 0.423688 -56.1272
-0.0284874 0.42117 -55.863
-0.0279666 0.420173 -55.7115
